…
set.seed(4622)

data = rsample::attrition

formula = Attrition ~ JobSatisfaction + Gender + MonthlyIncome

rs = rsample::vfold_cv( data, v = 10, repeats = 10)

rs
```


## #  10-fold cross-validation repeated 10 times 
## # A tibble: 100 x 3
##          splits       id    id2
##          <list>    <chr>  <chr>
##  1 <S3: rsplit> Repeat01 Fold01
##  2 <S3: rsplit> Repeat01 Fold02
##  3 <S3: rsplit> Repeat01 Fold03
##  4 <S3: rsplit> Repeat01 Fold04
##  5 <S3: rsplit> Repeat01 Fold05
##  6 <S3: rsplit> Repeat01 Fold06
##  7 <S3: rsplit> Repeat01 Fold07
##  8 <S3: rsplit> Repeat01 Fold08
##  9 <S3: rsplit> Repeat01 Fold09
## 10 <S3: rsplit> Repeat01 Fold10
## # ... with 90 more rows
…
